20221224 08:44 37.62
20221224 09:11 37.47
20221224 09:53 37.28
20221224 10:11 37.22
20221224 10:44 36.84
20221224 11:40 37.37
20221224 13:44 37.59
20221224 19:44 37.78
20221224 21:56 38.13
20221224 22:56 38.31
20221224 23:57 38.43
