{
  "data": {
    "totalrecords": 101,
    "limit": 101,
    "offset": 0,
    "date": "Nov 20, 2024 3:22 PM",
    "data": {
      "asOf": null,
      "headers": {
        "symbol": "Symbol",
        "companyName": "Name",
        "marketCap": "Market Cap",
        "lastSalePrice": "Last Sale",
        "netChange": "Net Change",
        "percentageChange": "Percentage Change"
      },
      "rows": [
        {
          "symbol": "AAPL",
          "sector": "",
          "companyName": "Apple Inc. Common Stock",
          "marketCap": "3,436,582,359,050",
          "lastSalePrice": "$227.815",
          "netChange": "$0.465",
          "percentageChange": "-0.20%",
          "deltaIndicator": "down"
        },
        {
          "symbol": "AMAT",
          "sector": "",
          "companyName": "Applied Materials, Inc. Common Stock",
          "marketCap": "138,623,547,397",
          "lastSalePrice": "$168.20",
          "netChange": "$1.11",
          "percentageChange": "-0.66%",
          "deltaIndicator": "down"
        },
        {
          "symbol": "AMGN",
          "sector": "",
          "companyName": "Amgen Inc. Common Stock",
          "marketCap": "153,739,734,105",
          "lastSalePrice": "$286.50",
          "netChange": "$6.55",
          "percentageChange": "+2.34%",
          "deltaIndicator": "up"
        },
        {
          "symbol": "CMCSA",
          "sector": "",
          "companyName": "Comcast Corporation Class A Common Stock",
          "marketCap": "163,288,410,932",
          "lastSalePrice": "$42.785",
          "netChange": "$0.465",
          "percentageChange": "+1.10%",
          "deltaIndicator": "up"
        },
        {
          "symbol": "INTC",
          "sector": "",
          "companyName": "Intel Corporation Common Stock",
          "marketCap": "102,369,055,000",
          "lastSalePrice": "$23.78",
          "netChange": "$0.42",
          "percentageChange": "-1.74%",
          "deltaIndicator": "down"
        },
        {
          "symbol": "KLAC",
          "sector": "",
          "companyName": "KLA Corporation Common Stock",
          "marketCap": "81,931,876,818",
          "lastSalePrice": "$613.64",
          "netChange": "$2.02",
          "percentageChange": "-0.33%",
          "deltaIndicator": "down"
        },
        {
          "symbol": "PCAR",
          "sector": "",
          "companyName": "PACCAR Inc. Common Stock",
          "marketCap": "57,434,504,188",
          "lastSalePrice": "$109.545",
          "netChange": "$0.835",
          "percentageChange": "-0.76%",
          "deltaIndicator": "down"
        },
        {
          "symbol": "CTAS",
          "sector": "",
          "companyName": "Cintas Corporation Common Stock",
          "marketCap": "87,874,739,144",
          "lastSalePrice": "$218.01",
          "netChange": "$0.04",
          "percentageChange": "+0.02%",
          "deltaIndicator": "up"
        },
        {
          "symbol": "PAYX",
          "sector": "",
          "companyName": "Paychex, Inc. Common Stock",
          "marketCap": "50,806,803,625",
          "lastSalePrice": "$141.29",
          "netChange": "$0.63",
          "percentageChange": "+0.45%",
          "deltaIndicator": "up"
        },
        {
          "symbol": "LRCX",
          "sector": "",
          "companyName": "Lam Research Corporation Common Stock",
          "marketCap": "89,179,751,345",
          "lastSalePrice": "$69.3183",
          "netChange": "$0.8517",
          "percentageChange": "-1.21%",
          "deltaIndicator": "down"
        },
        {
          "symbol": "ADSK",
          "sector": "",
          "companyName": "Autodesk, Inc. Common Stock",
          "marketCap": "65,600,800,000",
          "lastSalePrice": "$305.86",
          "netChange": "$0.66",
          "percentageChange": "+0.22%",
          "deltaIndicator": "up"
        },
        {
          "symbol": "ROST",
          "sector": "",
          "companyName": "Ross Stores, Inc. Common Stock",
          "marketCap": "46,151,481,931",
          "lastSalePrice": "$138.88",
          "netChange": "$0.38",
          "percentageChange": "-0.27%",
          "deltaIndicator": "down"
        },
        {
          "symbol": "MNST",
          "sector": "",
          "companyName": "Monster Beverage Corporation",
          "marketCap": "52,073,565,141",
          "lastSalePrice": "$53.52",
          "netChange": "$0.21",
          "percentageChange": "-0.39%",
          "deltaIndicator": "down"
        },
        {
          "symbol": "MSFT",
          "sector": "",
          "companyName": "Microsoft Corporation Common Stock",
          "marketCap": "3,075,066,688,954",
          "lastSalePrice": "$414.28",
          "netChange": "$3.51",
          "percentageChange": "-0.84%",
          "deltaIndicator": "down"
        },
        {
          "symbol": "ADBE",
          "sector": "",
          "companyName": "Adobe Inc. Common Stock",
          "marketCap": "219,197,590,000",
          "lastSalePrice": "$497.95",
          "netChange": "$1.66",
          "percentageChange": "-0.33%",
          "deltaIndicator": "down"
        },
        {
          "symbol": "FAST",
          "sector": "",
          "companyName": "Fastenal Company Common Stock",
          "marketCap": "46,604,316,368",
          "lastSalePrice": "$81.37",
          "netChange": "$0.22",
          "percentageChange": "-0.27%",
          "deltaIndicator": "down"
        },
        {
          "symbol": "EA",
          "sector": "",
          "companyName": "Electronic Arts Inc. Common Stock",
          "marketCap": "43,560,892,840",
          "lastSalePrice": "$166.51",
          "netChange": "$0.38",
          "percentageChange": "+0.23%",
          "deltaIndicator": "up"
        },
        {
          "symbol": "CSCO",
          "sector": "",
          "companyName": "Cisco Systems, Inc. Common Stock (DE)",
          "marketCap": "228,190,215,521",
          "lastSalePrice": "$57.175",
          "netChange": "$0.165",
          "percentageChange": "+0.29%",
          "deltaIndicator": "up"
        },
        {
          "symbol": "REGN",
          "sector": "",
          "companyName": "Regeneron Pharmaceuticals, Inc. Common Stock",
          "marketCap": "81,306,165,092",
          "lastSalePrice": "$741.76",
          "netChange": "$2.84",
          "percentageChange": "-0.38%",
          "deltaIndicator": "down"
        },
        {
          "symbol": "IDXX",
          "sector": "",
          "companyName": "IDEXX Laboratories, Inc. Common Stock",
          "marketCap": "33,709,869,052",
          "lastSalePrice": "$414.10",
          "netChange": "$2.24",
          "percentageChange": "-0.54%",
          "deltaIndicator": "down"
        },
        {
          "symbol": "VRTX",
          "sector": "",
          "companyName": "Vertex Pharmaceuticals Incorporated Common Stock",
          "marketCap": "115,321,616,062",
          "lastSalePrice": "$447.89",
          "netChange": "$0.12",
          "percentageChange": "-0.03%",
          "deltaIndicator": "down"
        },
        {
          "symbol": "BIIB",
          "sector": "",
          "companyName": "Biogen Inc. Common Stock",
          "marketCap": "22,560,996,816",
          "lastSalePrice": "$154.99",
          "netChange": "$0.44",
          "percentageChange": "-0.28%",
          "deltaIndicator": "down"
        },
        {
          "symbol": "ODFL",
          "sector": "",
          "companyName": "Old Dominion Freight Line, Inc. Common Stock",
          "marketCap": "45,477,110,143",
          "lastSalePrice": "$213.24",
          "netChange": "$1.44",
          "percentageChange": "+0.68%",
          "deltaIndicator": "up"
        },
        {
          "symbol": "QCOM",
          "sector": "",
          "companyName": "QUALCOMM Incorporated Common Stock",
          "marketCap": "170,705,150,000",
          "lastSalePrice": "$153.62",
          "netChange": "$11.09",
          "percentageChange": "-6.73%",
          "deltaIndicator": "down"
        },
        {
          "symbol": "GILD",
          "sector": "",
          "companyName": "Gilead Sciences, Inc. Common Stock",
          "marketCap": "110,194,827,076",
          "lastSalePrice": "$88.49",
          "netChange": "$0.74",
          "percentageChange": "+0.84%",
          "deltaIndicator": "up"
        },
        {
          "symbol": "SNPS",
          "sector": "",
          "companyName": "Synopsys, Inc. Common Stock",
          "marketCap": "82,522,839,414",
          "lastSalePrice": "$537.4675",
          "netChange": "$3.4475",
          "percentageChange": "+0.65%",
          "deltaIndicator": "up"
        },
        {
          "symbol": "SBUX",
          "sector": "",
          "companyName": "Starbucks Corporation Common Stock",
          "marketCap": "110,848,490,800",
          "lastSalePrice": "$97.819",
          "netChange": "$0.531",
          "percentageChange": "-0.54%",
          "deltaIndicator": "down"
        },
        {
          "symbol": "INTU",
          "sector": "",
          "companyName": "Intuit Inc. Common Stock",
          "marketCap": "181,574,559,060",
          "lastSalePrice": "$647.825",
          "netChange": "$3.655",
          "percentageChange": "+0.57%",
          "deltaIndicator": "up"
        },
        {
          "symbol": "MCHP",
          "sector": "",
          "companyName": "Microchip Technology Incorporated Common Stock",
          "marketCap": "34,519,017,842",
          "lastSalePrice": "$64.275",
          "netChange": "$0.605",
          "percentageChange": "-0.93%",
          "deltaIndicator": "down"
        },
        {
          "symbol": "ORLY",
          "sector": "",
          "companyName": "O'Reilly Automotive, Inc. Common Stock",
          "marketCap": "68,742,822,690",
          "lastSalePrice": "$1,188.66",
          "netChange": "$11.93",
          "percentageChange": "-0.99%",
          "deltaIndicator": "down"
        },
        {
          "symbol": "COST",
          "sector": "",
          "companyName": "Costco Wholesale Corporation Common Stock",
          "marketCap": "410,073,552,886",
          "lastSalePrice": "$925.5203",
          "netChange": "$4.6297",
          "percentageChange": "-0.50%",
          "deltaIndicator": "down"
        },
        {
          "symbol": "CPRT",
          "sector": "",
          "companyName": "Copart, Inc. (DE) Common Stock",
          "marketCap": "53,173,463,155",
          "lastSalePrice": "$55.25",
          "netChange": "$1.27",
          "percentageChange": "-2.25%",
          "deltaIndicator": "down"
        },
        {
          "symbol": "ASML",
          "sector": "",
          "companyName": "ASML Holding N.V. New York Registry Shares",
          "marketCap": "256,107,704,828",
          "lastSalePrice": "$650.975",
          "netChange": "$11.185",
          "percentageChange": "-1.69%",
          "deltaIndicator": "down"
        },
        {
          "symbol": "ANSS",
          "sector": "",
          "companyName": "ANSYS, Inc. Common Stock",
          "marketCap": "29,786,328,832",
          "lastSalePrice": "$341.16",
          "netChange": "$1.64",
          "percentageChange": "+0.48%",
          "deltaIndicator": "up"
        },
        {
          "symbol": "TTWO",
          "sector": "",
          "companyName": "Take-Two Interactive Software, Inc. Common Stock",
          "marketCap": "32,493,701,746",
          "lastSalePrice": "$185.39",
          "netChange": "$0.62",
          "percentageChange": "-0.33%",
          "deltaIndicator": "down"
        },
        {
          "symbol": "AMZN",
          "sector": "",
          "companyName": "Amazon.com, Inc. Common Stock",
          "marketCap": "2,120,035,467,932",
          "lastSalePrice": "$201.62",
          "netChange": "$2.99",
          "percentageChange": "-1.46%",
          "deltaIndicator": "down"
        },
        {
          "symbol": "CTSH",
          "sector": "",
          "companyName": "Cognizant Technology Solutions Corporation Class A Common Stock",
          "marketCap": "38,235,487,810",
          "lastSalePrice": "$77.145",
          "netChange": "$0.825",
          "percentageChange": "+1.08%",
          "deltaIndicator": "up"
        },
        {
          "symbol": "CSGP",
          "sector": "",
          "companyName": "CoStar Group, Inc. Common Stock",
          "marketCap": "30,984,740,295",
          "lastSalePrice": "$75.58",
          "netChange": "$3.49",
          "percentageChange": "+4.84%",
          "deltaIndicator": "up"
        },
        {
          "symbol": "NVDA",
          "sector": "",
          "companyName": "NVIDIA Corporation Common Stock",
          "marketCap": "3,543,849,100,000",
          "lastSalePrice": "$144.15",
          "netChange": "$2.86",
          "percentageChange": "-1.95%",
          "deltaIndicator": "down"
        },
        {
          "symbol": "BKNG",
          "sector": "",
          "companyName": "Booking Holdings Inc. Common Stock",
          "marketCap": "164,677,332,381",
          "lastSalePrice": "$4,975.6401",
          "netChange": "$1.3499",
          "percentageChange": "-0.03%",
          "deltaIndicator": "down"
        },
        {
          "symbol": "ON",
          "sector": "",
          "companyName": "ON Semiconductor Corporation Common Stock",
          "marketCap": "28,196,306,344",
          "lastSalePrice": "$66.365",
          "netChange": "$0.285",
          "percentageChange": "-0.43%",
          "deltaIndicator": "down"
        },
        {
          "symbol": "ISRG",
          "sector": "",
          "companyName": "Intuitive Surgical, Inc. Common Stock",
          "marketCap": "192,326,214,917",
          "lastSalePrice": "$539.77",
          "netChange": "$0.95",
          "percentageChange": "+0.18%",
          "deltaIndicator": "up"
        },
        {
          "symbol": "MRVL",
          "sector": "",
          "companyName": "Marvell Technology, Inc. Common Stock",
          "marketCap": "76,736,658,000",
          "lastSalePrice": "$88.76",
          "netChange": "$0.58",
          "percentageChange": "-0.65%",
          "deltaIndicator": "down"
        },
        {
          "symbol": "ILMN",
          "sector": "",
          "companyName": "Illumina, Inc. Common Stock",
          "marketCap": "20,817,836,000",
          "lastSalePrice": "$131.38",
          "netChange": "$3.62",
          "percentageChange": "-2.68%",
          "deltaIndicator": "down"
        },
        {
          "symbol": "ADI",
          "sector": "",
          "companyName": "Analog Devices, Inc. Common Stock",
          "marketCap": "104,194,116,466",
          "lastSalePrice": "$209.865",
          "netChange": "$0.565",
          "percentageChange": "-0.27%",
          "deltaIndicator": "down"
        },
        {
          "symbol": "AEP",
          "sector": "",
          "companyName": "American Electric Power Company, Inc. Common Stock",
          "marketCap": "51,360,600,907",
          "lastSalePrice": "$96.55",
          "netChange": "$0.15",
          "percentageChange": "-0.16%",
          "deltaIndicator": "down"
        },
        {
          "symbol": "AMD",
          "sector": "",
          "companyName": "Advanced Micro Devices, Inc. Common Stock",
          "marketCap": "220,755,838,541",
          "lastSalePrice": "$136.03",
          "netChange": "$3.36",
          "percentageChange": "-2.41%",
          "deltaIndicator": "down"
        },
        {
          "symbol": "ADP",
          "sector": "",
          "companyName": "Automatic Data Processing, Inc. Common Stock",
          "marketCap": "122,061,863,833",
          "lastSalePrice": "$299.57",
          "netChange": "$2.03",
          "percentageChange": "+0.68%",
          "deltaIndicator": "up"
        },
        {
          "symbol": "AZN",
          "sector": "",
          "companyName": "AstraZeneca PLC American Depositary Shares",
          "marketCap": "195,352,629,855",
          "lastSalePrice": "$63.005",
          "netChange": "$0.795",
          "percentageChange": "-1.25%",
          "deltaIndicator": "down"
        },
        {
          "symbol": "CDNS",
          "sector": "",
          "companyName": "Cadence Design Systems, Inc. Common Stock",
          "marketCap": "82,857,594,930",
          "lastSalePrice": "$302.88",
          "netChange": "$3.25",
          "percentageChange": "+1.08%",
          "deltaIndicator": "up"
        },
        {
          "symbol": "CSX",
          "sector": "",
          "companyName": "CSX Corporation Common Stock",
          "marketCap": "66,694,376,407",
          "lastSalePrice": "$34.565",
          "netChange": "$0.035",
          "percentageChange": "-0.10%",
          "deltaIndicator": "down"
        },
        {
          "symbol": "HON",
          "sector": "",
          "companyName": "Honeywell International Inc. Common Stock",
          "marketCap": "146,682,803,980",
          "lastSalePrice": "$226.51",
          "netChange": "$1.69",
          "percentageChange": "-0.74%",
          "deltaIndicator": "down"
        },
        {
          "symbol": "MAR",
          "sector": "",
          "companyName": "Marriott International Class A Common Stock",
          "marketCap": "77,585,067,280",
          "lastSalePrice": "$279.285",
          "netChange": "$0.015",
          "percentageChange": "+0.01%",
          "deltaIndicator": "up"
        },
        {
          "symbol": "MU",
          "sector": "",
          "companyName": "Micron Technology, Inc. Common Stock",
          "marketCap": "108,024,799,507",
          "lastSalePrice": "$97.305",
          "netChange": "$0.425",
          "percentageChange": "-0.43%",
          "deltaIndicator": "down"
        },
        {
          "symbol": "XEL",
          "sector": "",
          "companyName": "Xcel Energy Inc. Common Stock",
          "marketCap": "40,165,338,854",
          "lastSalePrice": "$70.135",
          "netChange": "$0.565",
          "percentageChange": "+0.81%",
          "deltaIndicator": "up"
        },
        {
          "symbol": "EXC",
          "sector": "",
          "companyName": "Exelon Corporation Common Stock",
          "marketCap": "38,851,893,271",
          "lastSalePrice": "$38.715",
          "netChange": "$0.385",
          "percentageChange": "-0.98%",
          "deltaIndicator": "down"
        },
        {
          "symbol": "PEP",
          "sector": "",
          "companyName": "PepsiCo, Inc. Common Stock",
          "marketCap": "217,350,501,341",
          "lastSalePrice": "$158.42",
          "netChange": "$1.70",
          "percentageChange": "+1.08%",
          "deltaIndicator": "up"
        },
        {
          "symbol": "ROP",
          "sector": "",
          "companyName": "Roper Technologies, Inc. Common Stock",
          "marketCap": "58,802,321,825",
          "lastSalePrice": "$548.835",
          "netChange": "$0.875",
          "percentageChange": "+0.16%",
          "deltaIndicator": "up"
        },
        {
          "symbol": "TXN",
          "sector": "",
          "companyName": "Texas Instruments Incorporated Common Stock",
          "marketCap": "179,332,664,146",
          "lastSalePrice": "$196.92",
          "netChange": "$4.15",
          "percentageChange": "-2.06%",
          "deltaIndicator": "down"
        },
        {
          "symbol": "MDLZ",
          "sector": "",
          "companyName": "Mondelez International, Inc. Class A Common Stock",
          "marketCap": "85,848,138,546",
          "lastSalePrice": "$64.205",
          "netChange": "$0.335",
          "percentageChange": "+0.52%",
          "deltaIndicator": "up"
        },
        {
          "symbol": "NFLX",
          "sector": "",
          "companyName": "Netflix, Inc. Common Stock",
          "marketCap": "374,506,740,128",
          "lastSalePrice": "$879.305",
          "netChange": "$7.985",
          "percentageChange": "+0.92%",
          "deltaIndicator": "up"
        },
        {
          "symbol": "GOOGL",
          "sector": "",
          "companyName": "Alphabet Inc. Class A Common Stock",
          "marketCap": "2,141,807,770,000",
          "lastSalePrice": "$174.97",
          "netChange": "$3.15",
          "percentageChange": "-1.77%",
          "deltaIndicator": "down"
        },
        {
          "symbol": "DXCM",
          "sector": "",
          "companyName": "DexCom, Inc. Common Stock",
          "marketCap": "29,154,039,910",
          "lastSalePrice": "$74.78",
          "netChange": "$0.10",
          "percentageChange": "-0.13%",
          "deltaIndicator": "down"
        },
        {
          "symbol": "SMCI",
          "sector": "",
          "companyName": "Super Micro Computer, Inc. Common Stock",
          "marketCap": "14,984,381,033",
          "lastSalePrice": "$25.5896",
          "netChange": "$2.6804",
          "percentageChange": "-9.48%",
          "deltaIndicator": "down"
        },
        {
          "symbol": "TMUS",
          "sector": "",
          "companyName": "T-Mobile US, Inc. Common Stock",
          "marketCap": "272,604,116,048",
          "lastSalePrice": "$235.145",
          "netChange": "$1.945",
          "percentageChange": "+0.83%",
          "deltaIndicator": "up"
        },
        {
          "symbol": "LULU",
          "sector": "",
          "companyName": "lululemon athletica inc. Common Stock",
          "marketCap": "39,059,639,874",
          "lastSalePrice": "$305.41",
          "netChange": "$3.56",
          "percentageChange": "+1.18%",
          "deltaIndicator": "up"
        },
        {
          "symbol": "MELI",
          "sector": "",
          "companyName": "MercadoLibre, Inc. Common Stock",
          "marketCap": "96,732,112,421",
          "lastSalePrice": "$1,908.03",
          "netChange": "$8.48",
          "percentageChange": "-0.44%",
          "deltaIndicator": "down"
        },
        {
          "symbol": "KDP",
          "sector": "",
          "companyName": "Keurig Dr Pepper Inc. Common Stock",
          "marketCap": "43,277,653,671",
          "lastSalePrice": "$31.905",
          "netChange": "$0.385",
          "percentageChange": "+1.22%",
          "deltaIndicator": "up"
        },
        {
          "symbol": "AVGO",
          "sector": "",
          "companyName": "Broadcom Inc. Common Stock",
          "marketCap": "754,368,096,046",
          "lastSalePrice": "$161.54",
          "netChange": "$3.81",
          "percentageChange": "-2.30%",
          "deltaIndicator": "down"
        },
        {
          "symbol": "VRSK",
          "sector": "",
          "companyName": "Verisk Analytics, Inc. Common Stock",
          "marketCap": "39,959,785,209",
          "lastSalePrice": "$283.39",
          "netChange": "$1.75",
          "percentageChange": "+0.62%",
          "deltaIndicator": "up"
        },
        {
          "symbol": "FTNT",
          "sector": "",
          "companyName": "Fortinet, Inc. Common Stock",
          "marketCap": "70,398,680,311",
          "lastSalePrice": "$91.57",
          "netChange": "$0.78",
          "percentageChange": "+0.86%",
          "deltaIndicator": "up"
        },
        {
          "symbol": "CHTR",
          "sector": "",
          "companyName": "Charter Communications, Inc. Class A Common Stock New",
          "marketCap": "54,871,918,353",
          "lastSalePrice": "$386.74",
          "netChange": "$1.90",
          "percentageChange": "+0.49%",
          "deltaIndicator": "up"
        },
        {
          "symbol": "TSLA",
          "sector": "",
          "companyName": "Tesla, Inc. Common Stock",
          "marketCap": "1,091,869,692,412",
          "lastSalePrice": "$339.81",
          "netChange": "$6.19",
          "percentageChange": "-1.79%",
          "deltaIndicator": "down"
        },
        {
          "symbol": "NXPI",
          "sector": "",
          "companyName": "NXP Semiconductors N.V. Common Stock",
          "marketCap": "55,370,334,659",
          "lastSalePrice": "$218.44",
          "netChange": "$1.47",
          "percentageChange": "-0.67%",
          "deltaIndicator": "down"
        },
        {
          "symbol": "FANG",
          "sector": "",
          "companyName": "Diamondback Energy, Inc. Common Stock",
          "marketCap": "52,882,162,925",
          "lastSalePrice": "$181.11",
          "netChange": "$0.99",
          "percentageChange": "+0.55%",
          "deltaIndicator": "up"
        },
        {
          "symbol": "META",
          "sector": "",
          "companyName": "Meta Platforms, Inc. Class A Common Stock",
          "marketCap": "1,416,793,454,490",
          "lastSalePrice": "$562.635",
          "netChange": "$1.545",
          "percentageChange": "+0.28%",
          "deltaIndicator": "up"
        },
        {
          "symbol": "PANW",
          "sector": "",
          "companyName": "Palo Alto Networks, Inc. Common Stock",
          "marketCap": "127,195,640,000",
          "lastSalePrice": "$390.416",
          "netChange": "$2.356",
          "percentageChange": "+0.61%",
          "deltaIndicator": "up"
        },
        {
          "symbol": "WDAY",
          "sector": "",
          "companyName": "Workday, Inc. Class A Common Stock",
          "marketCap": "68,437,575,000",
          "lastSalePrice": "$258.255",
          "netChange": "$1.645",
          "percentageChange": "-0.63%",
          "deltaIndicator": "down"
        },
        {
          "symbol": "CDW",
          "sector": "",
          "companyName": "CDW Corporation Common Stock",
          "marketCap": "23,239,133,514",
          "lastSalePrice": "$174.395",
          "netChange": "$0.345",
          "percentageChange": "+0.20%",
          "deltaIndicator": "up"
        },
        {
          "symbol": "GOOG",
          "sector": "",
          "companyName": "Alphabet Inc. Class C Capital Stock",
          "marketCap": "2,158,945,170,000",
          "lastSalePrice": "$176.37",
          "netChange": "$3.21",
          "percentageChange": "-1.79%",
          "deltaIndicator": "down"
        },
        {
          "symbol": "PYPL",
          "sector": "",
          "companyName": "PayPal Holdings, Inc. Common Stock",
          "marketCap": "84,629,315,166",
          "lastSalePrice": "$84.54",
          "netChange": "$0.45",
          "percentageChange": "+0.54%",
          "deltaIndicator": "up"
        },
        {
          "symbol": "KHC",
          "sector": "",
          "companyName": "The Kraft Heinz Company Common Stock",
          "marketCap": "37,309,091,354",
          "lastSalePrice": "$30.855",
          "netChange": "$0.275",
          "percentageChange": "+0.90%",
          "deltaIndicator": "up"
        },
        {
          "symbol": "TEAM",
          "sector": "",
          "companyName": "Atlassian Corporation Class A Common Stock",
          "marketCap": "64,027,545,244",
          "lastSalePrice": "$245.85",
          "netChange": "$1.88",
          "percentageChange": "-0.76%",
          "deltaIndicator": "down"
        },
        {
          "symbol": "CCEP",
          "sector": "",
          "companyName": "Coca-Cola Europacific Partners plc Ordinary Shares",
          "marketCap": "34,888,066,757",
          "lastSalePrice": "$75.685",
          "netChange": "$0.405",
          "percentageChange": "-0.53%",
          "deltaIndicator": "down"
        },
        {
          "symbol": "TTD",
          "sector": "",
          "companyName": "The Trade Desk, Inc. Class A Common Stock",
          "marketCap": "61,637,510,255",
          "lastSalePrice": "$124.54",
          "netChange": "$5.12",
          "percentageChange": "+4.29%",
          "deltaIndicator": "up"
        },
        {
          "symbol": "BKR",
          "sector": "",
          "companyName": "Baker Hughes Company Class A Common Stock",
          "marketCap": "43,598,507,145",
          "lastSalePrice": "$44.135",
          "netChange": "$1.265",
          "percentageChange": "+2.95%",
          "deltaIndicator": "up"
        },
        {
          "symbol": "MDB",
          "sector": "",
          "companyName": "MongoDB, Inc. Class A Common Stock",
          "marketCap": "20,794,251,301",
          "lastSalePrice": "$281.50",
          "netChange": "$7.65",
          "percentageChange": "-2.65%",
          "deltaIndicator": "down"
        },
        {
          "symbol": "ZS",
          "sector": "",
          "companyName": "Zscaler, Inc. Common Stock",
          "marketCap": "30,491,901,400",
          "lastSalePrice": "$199.83",
          "netChange": "$4.53",
          "percentageChange": "-2.22%",
          "deltaIndicator": "down"
        },
        {
          "symbol": "PDD",
          "sector": "",
          "companyName": "PDD Holdings Inc. American Depositary Shares",
          "marketCap": "159,181,602,092",
          "lastSalePrice": "$115.795",
          "netChange": "$1.885",
          "percentageChange": "-1.60%",
          "deltaIndicator": "down"
        },
        {
          "symbol": "MRNA",
          "sector": "",
          "companyName": "Moderna, Inc. Common Stock",
          "marketCap": "14,061,242,814",
          "lastSalePrice": "$36.5329",
          "netChange": "$0.7571",
          "percentageChange": "-2.03%",
          "deltaIndicator": "down"
        },
        {
          "symbol": "CRWD",
          "sector": "",
          "companyName": "CrowdStrike Holdings, Inc. Class A Common Stock",
          "marketCap": "85,444,941,852",
          "lastSalePrice": "$348.575",
          "netChange": "$4.715",
          "percentageChange": "-1.33%",
          "deltaIndicator": "down"
        },
        {
          "symbol": "DDOG",
          "sector": "",
          "companyName": "Datadog, Inc. Class A Common Stock",
          "marketCap": "46,195,541,019",
          "lastSalePrice": "$135.98",
          "netChange": "$2.57",
          "percentageChange": "+1.93%",
          "deltaIndicator": "up"
        },
        {
          "symbol": "ABNB",
          "sector": "",
          "companyName": "Airbnb, Inc. Class A Common Stock",
          "marketCap": "85,357,941,610",
          "lastSalePrice": "$134.63",
          "netChange": "$3.19",
          "percentageChange": "+2.43%",
          "deltaIndicator": "up"
        },
        {
          "symbol": "DASH",
          "sector": "",
          "companyName": "DoorDash, Inc. Class A Common Stock",
          "marketCap": "71,286,148,575",
          "lastSalePrice": "$172.215",
          "netChange": "$3.965",
          "percentageChange": "-2.25%",
          "deltaIndicator": "down"
        },
        {
          "symbol": "APP",
          "sector": "",
          "companyName": "Applovin Corporation Class A Common Stock",
          "marketCap": "109,594,215,432",
          "lastSalePrice": "$326.595",
          "netChange": "$5.405",
          "percentageChange": "+1.68%",
          "deltaIndicator": "up"
        },
        {
          "symbol": "GFS",
          "sector": "",
          "companyName": "GlobalFoundries Inc. Ordinary Shares",
          "marketCap": "22,784,043,500",
          "lastSalePrice": "$41.36",
          "netChange": "$1.02",
          "percentageChange": "-2.41%",
          "deltaIndicator": "down"
        },
        {
          "symbol": "CEG",
          "sector": "",
          "companyName": "Constellation Energy Corporation Common Stock ",
          "marketCap": "73,415,703,783",
          "lastSalePrice": "$234.73",
          "netChange": "$0.15",
          "percentageChange": "+0.06%",
          "deltaIndicator": "up"
        },
        {
          "symbol": "WBD",
          "sector": "",
          "companyName": "Warner Bros. Discovery, Inc. Series A Common Stock ",
          "marketCap": "24,102,347,078",
          "lastSalePrice": "$9.8301",
          "netChange": "$0.3301",
          "percentageChange": "+3.47%",
          "deltaIndicator": "up"
        },
        {
          "symbol": "GEHC",
          "sector": "",
          "companyName": "GE HealthCare Technologies Inc. Common Stock ",
          "marketCap": "38,745,112,984",
          "lastSalePrice": "$84.785",
          "netChange": "$2.265",
          "percentageChange": "+2.74%",
          "deltaIndicator": "up"
        },
        {
          "symbol": "LIN",
          "sector": "",
          "companyName": "Linde plc Ordinary Shares",
          "marketCap": "213,427,066,467",
          "lastSalePrice": "$448.83",
          "netChange": "$4.77",
          "percentageChange": "+1.07%",
          "deltaIndicator": "up"
        },
        {
          "symbol": "ARM",
          "sector": "",
          "companyName": "Arm Holdings plc American Depositary Shares",
          "marketCap": "137,391,247,086",
          "lastSalePrice": "$132.13",
          "netChange": "$0.93",
          "percentageChange": "-0.70%",
          "deltaIndicator": "down"
        }
      ]
    },
    "filters": null,
    "title": null
  },
  "message": null,
  "status": {
    "rCode": 200,
    "bCodeMessage": null,
    "developerMessage": null
  }
}
